
 Node Name =spocosy   Node Value = Attr name : exec Attr value : 0.098 Attr name : responsetime Attr value : 2011-03-15 13:55:01 Attr name : version Attr value : 1.0
 Node Name =query-response   Node Value = Attr name : requestid Attr value :  Attr name : service Attr value : objectquery
 Node Name =sport   Node Value = Attr name : del Attr value : no Attr name : enetSportCode Attr value : ts Attr name : id Attr value : 2 Attr name : n Attr value : 0 Attr name : name Attr value : Tennis Attr name : ut Attr value : 2009-12-29 15:36:24
 Node Name =tournament_template   Node Value = Attr name : del Attr value : no Attr name : enetID Attr value : 0 Attr name : gender Attr value : female Attr name : id Attr value : 152 Attr name : n Attr value : 1 Attr name : name Attr value : WTA Attr name : sportFK Attr value : 2 Attr name : ut Attr value : 2010-05-27 10:00:52
 Node Name =tournament   Node Value = Attr name : del Attr value : no Attr name : enetSeasonID Attr value : 56 Attr name : id Attr value : 5860 Attr name : locked Attr value : none Attr name : n Attr value : 0 Attr name : name Attr value : 2011 Attr name : tournament_templateFK Attr value : 152 Attr name : ut Attr value : 2010-12-31 12:23:43
 Node Name =tournament_stage   Node Value = Attr name : countryFK Attr value : 16 Attr name : del Attr value : no Attr name : enddate Attr value : 2011-03-16 Attr name : enetID Attr value : 110 Attr name : gender Attr value : undefined Attr name : id Attr value : 823430 Attr name : locked Attr value : none Attr name : n Attr value : 8 Attr name : name Attr value : BNP Paribas Open Attr name : startdate Attr value : 2011-03-09 Attr name : tournamentFK Attr value : 5860 Attr name : ut Attr value : 2011-03-15 00:00:09
 Node Name =properties   Node Value =
 Node Name =property   Node Value = Attr name : del Attr value : no Attr name : id Attr value : 11936149 Attr name : n Attr value : 0 Attr name : name Attr value : City Attr name : object Attr value : tournament_stage Attr name : objectFK Attr value : 823430 Attr name : type Attr value : metadata Attr name : ut Attr value : 2011-03-08 07:16:30 Attr name : value Attr value : Indian Wells Node Name =property  
 Node Name =property   Node Value = Attr name : del Attr value : no Attr name : id Attr value : 11936150 Attr name : n Attr value : 0 Attr name : name Attr value : Tourtype Attr name : object Attr value : tournament_stage Attr name : objectFK Attr value : 823430 Attr name : type Attr value : metadata Attr name : ut Attr value : 2011-03-08 07:16:30 Attr name : value Attr value : WTA Node Name =property  
 Node Name =property   Node Value = Attr name : del Attr value : no Attr name : id Attr value : 11936151 Attr name : n Attr value : 0 Attr name : name Attr value : Surface Attr name : object Attr value : tournament_stage Attr name : objectFK Attr value : 823430 Attr name : type Attr value : metadata Attr name : ut Attr value : 2011-03-08 07:16:30 Attr name : value Attr value : Hard Node Name =property  
 Node Name =property   Node Value = Attr name : del Attr value : no Attr name : id Attr value : 11936152 Attr name : n Attr value : 0 Attr name : name Attr value : InOutDoor Attr name : object Attr value : tournament_stage Attr name : objectFK Attr value : 823430 Attr name : type Attr value : metadata Attr name : ut Attr value : 2011-03-08 07:16:30 Attr name : value Attr value : Outdoor Node Name =property   Node Name =properties  
 Node Name =event   Node Value = Attr name : del Attr value : no Attr name : enetID Attr value : 106679 Attr name : enetSportID Attr value : ts Attr name : eventstatusFK Attr value : 36 Attr name : id Attr value : 993783 Attr name : locked Attr value : none Attr name : n Attr value : 2 Attr name : name Attr value : Caroline Wozniacki-Maria Jose Martinez Attr name : startdate Attr value : 2011-03-14 19:00:00 Attr name : status_descFK Attr value : 6 Attr name : status_type Attr value : finished Attr name : tournament_stageFK Attr value : 823430 Attr name : ut Attr value : 2011-03-14 20:26:16
 Node Name =properties   Node Value =
 Node Name =property   Node Value = Attr name : del Attr value : no Attr name : id Attr value : 11968523 Attr name : n Attr value : 0 Attr name : name Attr value : TennisRound_Number Attr name : object Attr value : event Attr name : objectFK Attr value : 993783 Attr name : type Attr value : metadata Attr name : ut Attr value : 2011-03-13 02:40:15 Attr name : value Attr value : 4001 Node Name =property  
 Node Name =property   Node Value = Attr name : del Attr value : no Attr name : id Attr value : 11968524 Attr name : n Attr value : 0 Attr name : name Attr value : Live Attr name : object Attr value : event Attr name : objectFK Attr value : 993783 Attr name : type Attr value : metadata Attr name : ut Attr value : 2011-03-13 02:40:15 Attr name : value Attr value : yes Node Name =property  
 Node Name =property   Node Value = Attr name : del Attr value : no Attr name : id Attr value : 11968525 Attr name : n Attr value : 0 Attr name : name Attr value : Sets Attr name : object Attr value : event Attr name : objectFK Attr value : 993783 Attr name : type Attr value : metadata Attr name : ut Attr value : 2011-03-13 02:40:15 Attr name : value Attr value : 3 Node Name =property  
 Node Name =property   Node Value = Attr name : del Attr value : no Attr name : id Attr value : 11968526 Attr name : n Attr value : 1 Attr name : name Attr value : firsttoserve Attr name : object Attr value : event Attr name : objectFK Attr value : 993783 Attr name : type Attr value : metadata Attr name : ut Attr value : 2011-03-14 19:14:06 Attr name : value Attr value : a Node Name =property  
 Node Name =property   Node Value = Attr name : del Attr value : no Attr name : id Attr value : 11968527 Attr name : n Attr value : 0 Attr name : name Attr value : Comment Attr name : object Attr value : event Attr name : objectFK Attr value : 993783 Attr name : type Attr value : metadata Attr name : ut Attr value : 2011-03-13 02:40:15 Attr name : value Attr value : None Node Name =property  
 Node Name =property   Node Value = Attr name : del Attr value : no Attr name : id Attr value : 11968528 Attr name : n Attr value : 0 Attr name : name Attr value : EventTypeName Attr name : object Attr value : event Attr name : objectFK Attr value : 993783 Attr name : type Attr value : metadata Attr name : ut Attr value : 2011-03-13 02:40:15 Attr name : value Attr value : Female Single Node Name =property  
 Node Name =property   Node Value = Attr name : del Attr value : no Attr name : id Attr value : 11980735 Attr name : n Attr value : 0 Attr name : name Attr value : GameStarted Attr name : object Attr value : event Attr name : objectFK Attr value : 993783 Attr name : type Attr value : metadata Attr name : ut Attr value : 2011-03-14 19:14:00 Attr name : value Attr value : 2011-03-14 19:13:59 Node Name =property  
 Node Name =property   Node Value = Attr name : del Attr value : no Attr name : id Attr value : 11981081 Attr name : n Attr value : 0 Attr name : name Attr value : GameEnded Attr name : object Attr value : event Attr name : objectFK Attr value : 993783 Attr name : type Attr value : metadata Attr name : ut Attr value : 2011-03-14 20:26:16 Attr name : value Attr value : 2011-03-14 20:26:13 Node Name =property  
 Node Name =property   Node Value = Attr name : del Attr value : no Attr name : id Attr value : 11981082 Attr name : n Attr value : 0 Attr name : name Attr value : Winner Attr name : object Attr value : event Attr name : objectFK Attr value : 993783 Attr name : type Attr value : metadata Attr name : ut Attr value : 2011-03-14 20:26:16 Attr name : value Attr value : a Node Name =property   Node Name =properties  
 Node Name =event_participant   Node Value = Attr name : del Attr value : no Attr name : eventFK Attr value : 993783 Attr name : id Attr value : 2655934 Attr name : n Attr value : 0 Attr name : number Attr value : 1 Attr name : participantFK Attr value : 48790 Attr name : ut Attr value : 2011-03-13 02:40:15
 Node Name =participant   Node Value = Attr name : countryFK Attr value : 1 Attr name : del Attr value : no Attr name : enetID Attr value : 1382 Attr name : enetSportID Attr value : ts Attr name : gender Attr value : female Attr name : id Attr value : 48790 Attr name : n Attr value : 1 Attr name : name Attr value : Caroline Wozniacki Attr name : type Attr value : athlete Attr name : ut Attr value : 2007-02-12 10:19:32 Node Name =participant  
 Node Name =results   Node Value =
 Node Name =result   Node Value = Attr name : del Attr value : no Attr name : event_participantsFK Attr value : 2655934 Attr name : id Attr value : 9462020 Attr name : n Attr value : 2 Attr name : result_code Attr value : runningscore Attr name : result_typeFK Attr value : 6 Attr name : ut Attr value : 2011-03-14 20:26:17 Attr name : value Attr value : 2 Node Name =result  
 Node Name =result   Node Value = Attr name : del Attr value : no Attr name : event_participantsFK Attr value : 2655934 Attr name : id Attr value : 9462021 Attr name : n Attr value : 2 Attr name : result_code Attr value : setswon Attr name : result_typeFK Attr value : 85 Attr name : ut Attr value : 2011-03-14 20:26:17 Attr name : value Attr value : 2 Node Name =result  
 Node Name =result   Node Value = Attr name : del Attr value : no Attr name : event_participantsFK Attr value : 2655934 Attr name : id Attr value : 9470833 Attr name : n Attr value : 6 Attr name : result_code Attr value : set1 Attr name : result_typeFK Attr value : 80 Attr name : ut Attr value : 2011-03-14 19:40:11 Attr name : value Attr value : 6 Node Name =result  
 Node Name =result   Node Value = Attr name : del Attr value : no Attr name : event_participantsFK Attr value : 2655934 Attr name : id Attr value : 9470867 Attr name : n Attr value : 6 Attr name : result_code Attr value : set2 Attr name : result_typeFK Attr value : 81 Attr name : ut Attr value : 2011-03-14 20:26:15 Attr name : value Attr value : 6 Node Name =result  
 Node Name =result   Node Value = Attr name : del Attr value : no Attr name : event_participantsFK Attr value : 2655934 Attr name : id Attr value : 9471262 Attr name : n Attr value : 0 Attr name : result_code Attr value : finalresult Attr name : result_typeFK Attr value : 4 Attr name : ut Attr value : 2011-03-14 20:26:17 Attr name : value Attr value : won Node Name =result   Node Name =results   Node Name =event_participant  
 Node Name =event_participant   Node Value = Attr name : del Attr value : no Attr name : eventFK Attr value : 993783 Attr name : id Attr value : 2655935 Attr name : n Attr value : 0 Attr name : number Attr value : 2 Attr name : participantFK Attr value : 48091 Attr name : ut Attr value : 2011-03-13 02:40:15
 Node Name =participant   Node Value = Attr name : countryFK Attr value : 8 Attr name : del Attr value : no Attr name : enetID Attr value : 570 Attr name : enetSportID Attr value : ts Attr name : gender Attr value : female Attr name : id Attr value : 48091 Attr name : n Attr value : 1 Attr name : name Attr value : Maria Jose Martinez Attr name : type Attr value : athlete Attr name : ut Attr value : 2007-02-12 10:19:31 Node Name =participant  
 Node Name =results   Node Value =
 Node Name =result   Node Value = Attr name : del Attr value : no Attr name : event_participantsFK Attr value : 2655935 Attr name : id Attr value : 9462022 Attr name : n Attr value : 0 Attr name : result_code Attr value : runningscore Attr name : result_typeFK Attr value : 6 Attr name : ut Attr value : 2011-03-13 02:40:15 Attr name : value Attr value : 0 Node Name =result  
 Node Name =result   Node Value = Attr name : del Attr value : no Attr name : event_participantsFK Attr value : 2655935 Attr name : id Attr value : 9462023 Attr name : n Attr value : 0 Attr name : result_code Attr value : setswon Attr name : result_typeFK Attr value : 85 Attr name : ut Attr value : 2011-03-13 02:40:15 Attr name : value Attr value : 0 Node Name =result  
 Node Name =result   Node Value = Attr name : del Attr value : no Attr name : event_participantsFK Attr value : 2655935 Attr name : id Attr value : 9470834 Attr name : n Attr value : 1 Attr name : result_code Attr value : set1 Attr name : result_typeFK Attr value : 80 Attr name : ut Attr value : 2011-03-14 19:30:28 Attr name : value Attr value : 1 Node Name =result  
 Node Name =result   Node Value = Attr name : del Attr value : no Attr name : event_participantsFK Attr value : 2655935 Attr name : id Attr value : 9470868 Attr name : n Attr value : 3 Attr name : result_code Attr value : set2 Attr name : result_typeFK Attr value : 81 Attr name : ut Attr value : 2011-03-14 20:15:48 Attr name : value Attr value : 3 Node Name =result  
 Node Name =result   Node Value = Attr name : del Attr value : no Attr name : event_participantsFK Attr value : 2655935 Attr name : id Attr value : 9471263 Attr name : n Attr value : 0 Attr name : result_code Attr value : finalresult Attr name : result_typeFK Attr value : 4 Attr name : ut Attr value : 2011-03-14 20:26:17 Attr name : value Attr value : lost Node Name =result   Node Name =results   Node Name =event_participant   Node Name =event   Node Name =tournament_stage   Node Name =tournament   Node Name =tournament_template   Node Name =sport   Node Name =query-response   Node Name =spocosy  